{
    "name": "20mm-androgynous-square",
    "boundary": [
        {"x": -10.0, "y":  10.0},
        {"x": -10.0, "y": 5.0},
        {"x": -5.0, "y": 5.0},
        {"x": -5.0, "y": -5.0},
        {"x": -10.0, "y": -5.0},
        {"x": -10.0, "y": -10.0},

        {"x": 10.0, "y": -10.00},

        {"x": 10.0, "y": -4.8},
        {"x": 14.9, "y": -4.8},
        {"x": 14.9, "y": 4.8},
        {"x": 10.0, "y": 4.8},
        {"x": 10.0, "y": 10.0},

        {"x": -10.00, "y": 10.00}
    ]
}
