{
    "name": "20mm-androgynous-twosquare",
    "boundary": [
        {"x": -10.0, "y":  10.0},
        {"x": -10.0, "y": 7.5},
        {"x": -5.0, "y": 7.5}, 
        {"x": -5.0, "y": 2.5},
        {"x": -10.0, "y": 2.5},
        {"x": -10.0, "y": -2.5},
        {"x": -5.0, "y": -2.5}, 
        {"x": -5.0, "y": -7.5},
        {"x": -10.0, "y": -7.5},
        {"x": -10.0, "y": -10.0},

        {"x": 10.0, "y": -10.00},

        {"x": 10.0, "y": -7.4},
        {"x": 14.9, "y": -7.4}, 
        {"x": 14.9, "y": -2.6},
        {"x": 10.0, "y": -2.6},
        {"x": 10.0, "y": 2.6},
        {"x": 14.9, "y": 2.6}, 
        {"x": 14.9, "y": 7.4},
        {"x": 10.0, "y": 7.4},
        {"x": 10.0, "y": 10.0},

        {"x": -10.00, "y": 10.00}
    ]
}
