{
    "name": "20mm-androgynous-pgsq",
    "boundary": [
        {"x": -10.0, "y":  10.0},
        {"x": -10.0, "y": 6.0},
        {"x": -5.0, "y": 4.0},
        {"x": -5.0, "y": -6.0},
        {"x": -10.0, "y": -4.0},
        {"x": -10.0, "y": -10.0},

        {"x": -2.9, "y": -10.0},
        {"x": -2.9, "y": -14.9},
        {"x": 6.9, "y": -14.9},
        {"x": 6.9, "y": -10.0},
        {"x": 10.0, "y": -10.00},

        {"x": 10.0, "y": -3.9},
        {"x": 14.9, "y": -5.9},
        {"x": 14.9, "y": 3.9},
        {"x": 10.0, "y": 5.9},
        {"x": 10.0, "y": 10.0},

        {"x": 4, "y": 10},
        {"x": 6, "y": 5},
        {"x": -4, "y": 5},
        {"x": -6, "y": 10},
        {"x": -10.00, "y": 10.00}
    ]
}
