{
    "boundary":[
        {
            "x":-7.0,
            "y":7.6000000000000005
        },
        {
            "x":-6.6000000000000005,
            "y":7.2
        },
        {
            "x":-6.0,
            "y":7.0
        },
        {
            "x":-5.800000000000001,
            "y":6.6000000000000005
        },
        {
            "x":-5.2,
            "y":6.2
        },
        {
            "x":-4.800000000000001,
            "y":5.6000000000000005
        },
        {
            "x":-4.2,
            "y":5.2
        },
        {
            "x":-3.8000000000000003,
            "y":4.6000000000000005
        },
        {
            "x":-3.4000000000000004,
            "y":4.0
        },
        {
            "x":-3.0,
            "y":3.6
        },
        {
            "x":-2.8000000000000003,
            "y":3.0
        },
        {
            "x":-3.4000000000000004,
            "y":2.8000000000000003
        },
        {
            "x":-4.0,
            "y":2.8000000000000003
        },
        {
            "x":-4.6000000000000005,
            "y":2.6
        },
        {
            "x":-5.2,
            "y":2.6
        },
        {
            "x":-5.800000000000001,
            "y":2.4000000000000004
        },
        {
            "x":-6.4,
            "y":2.4000000000000004
        },
        {
            "x":-7.6000000000000005,
            "y":2.4000000000000004
        },
        {
            "x":-8.200000000000001,
            "y":2.6
        },
        {
            "x":-8.6,
            "y":2.4000000000000004
        },
        {
            "x":-8.0,
            "y":1.8
        },
        {
            "x":-7.4,
            "y":1.2000000000000002
        },
        {
            "x":-7.0,
            "y":0.8
        },
        {
            "x":-6.4,
            "y":0.2
        },
        {
            "x":-5.2,
            "y":-0.8
        },
        {
            "x":-4.6000000000000005,
            "y":-1.2000000000000002
        },
        {
            "x":-4.0,
            "y":-1.6
        },
        {
            "x":-3.4000000000000004,
            "y":-2.0
        },
        {
            "x":-2.8000000000000003,
            "y":-2.2
        },
        {
            "x":-2.8000000000000003,
            "y":-2.8000000000000003
        },
        {
            "x":-3.4000000000000004,
            "y":-3.0
        },
        {
            "x":-4.0,
            "y":-3.2
        },
        {
            "x":-4.6000000000000005,
            "y":-3.6
        },
        {
            "x":-5.0,
            "y":-4.2
        },
        {
            "x":-5.6000000000000005,
            "y":-4.6000000000000005
        },
        {
            "x":-6.2,
            "y":-5.0
        },
        {
            "x":-6.6000000000000005,
            "y":-5.6000000000000005
        },
        {
            "x":-7.2,
            "y":-6.0
        },
        {
            "x":-7.800000000000001,
            "y":-6.6000000000000005
        },
        {
            "x":-8.0,
            "y":-7.2
        },
        {
            "x":-8.4,
            "y":-7.6000000000000005
        },
        {
            "x":-8.8,
            "y":-8.200000000000001
        },
        {
            "x":-8.8,
            "y":-8.6
        },
        {
            "x":-8.200000000000001,
            "y":-8.4
        },
        {
            "x":-7.6000000000000005,
            "y":-8.4
        },
        {
            "x":-7.0,
            "y":-8.0
        },
        {
            "x":-6.4,
            "y":-7.800000000000001
        },
        {
            "x":-5.800000000000001,
            "y":-7.4
        },
        {
            "x":-5.2,
            "y":-7.2
        },
        {
            "x":-4.6000000000000005,
            "y":-6.800000000000001
        },
        {
            "x":-4.0,
            "y":-6.6000000000000005
        },
        {
            "x":-3.4000000000000004,
            "y":-6.6000000000000005
        },
        {
            "x":-2.8000000000000003,
            "y":-6.800000000000001
        },
        {
            "x":-2.2,
            "y":-6.800000000000001
        },
        {
            "x":-1.6,
            "y":-7.0
        },
        {
            "x":-1.0,
            "y":-7.2
        },
        {
            "x":-0.4,
            "y":-7.2
        },
        {
            "x":0.2,
            "y":-7.2
        },
        {
            "x":0.8,
            "y":-7.0
        },
        {
            "x":1.4000000000000001,
            "y":-7.0
        },
        {
            "x":2.0,
            "y":-6.800000000000001
        },
        {
            "x":2.6,
            "y":-6.4
        },
        {
            "x":2.8000000000000003,
            "y":-5.800000000000001
        },
        {
            "x":3.2,
            "y":-5.2
        },
        {
            "x":3.2,
            "y":-4.6000000000000005
        },
        {
            "x":3.6,
            "y":-4.0
        },
        {
            "x":4.0,
            "y":-3.4000000000000004
        },
        {
            "x":4.2,
            "y":-2.8000000000000003
        },
        {
            "x":4.6000000000000005,
            "y":-2.2
        },
        {
            "x":5.2,
            "y":-2.0
        },
        {
            "x":5.800000000000001,
            "y":-2.0
        },
        {
            "x":6.4,
            "y":-1.8
        },
        {
            "x":7.6000000000000005,
            "y":-1.4000000000000001
        },
        {
            "x":8.8,
            "y":-1.0
        },
        {
            "x":9.4,
            "y":-0.8
        },
        {
            "x":10.600000000000001,
            "y":-0.4
        },
        {
            "x":11.200000000000001,
            "y":-0.4
        },
        {
            "x":12.4,
            "y":-0.2
        },
        {
            "x":13.0,
            "y":-0.2
        },
        {
            "x":13.600000000000001,
            "y":-0.4
        },
        {
            "x":13.8,
            "y":-0.0
        },
        {
            "x":13.4,
            "y":0.4
        },
        {
            "x":12.8,
            "y":0.6000000000000001
        },
        {
            "x":12.4,
            "y":1.0
        },
        {
            "x":11.8,
            "y":1.2000000000000002
        },
        {
            "x":11.200000000000001,
            "y":1.4000000000000001
        },
        {
            "x":10.0,
            "y":1.6
        },
        {
            "x":9.4,
            "y":1.4000000000000001
        },
        {
            "x":8.200000000000001,
            "y":1.2000000000000002
        },
        {
            "x":7.6000000000000005,
            "y":1.2000000000000002
        },
        {
            "x":6.4,
            "y":1.2000000000000002
        },
        {
            "x":5.800000000000001,
            "y":1.4000000000000001
        },
        {
            "x":5.2,
            "y":1.6
        },
        {
            "x":4.6000000000000005,
            "y":1.8
        },
        {
            "x":4.0,
            "y":2.2
        },
        {
            "x":3.8000000000000003,
            "y":2.8000000000000003
        },
        {
            "x":3.4000000000000004,
            "y":3.4000000000000004
        },
        {
            "x":3.2,
            "y":4.0
        },
        {
            "x":2.8000000000000003,
            "y":4.6000000000000005
        },
        {
            "x":2.6,
            "y":5.2
        },
        {
            "x":2.4000000000000004,
            "y":5.800000000000001
        },
        {
            "x":1.8,
            "y":6.2
        },
        {
            "x":1.2000000000000002,
            "y":6.4
        },
        {
            "x":0.6000000000000001,
            "y":6.4
        },
        {
            "x":0.0,
            "y":6.6000000000000005
        },
        {
            "x":-1.2000000000000002,
            "y":7.0
        },
        {
            "x":-1.8,
            "y":7.2
        },
        {
            "x":-2.4000000000000004,
            "y":7.4
        },
        {
            "x":-3.0,
            "y":7.6000000000000005
        },
        {
            "x":-3.6,
            "y":7.6000000000000005
        },
        {
            "x":-4.800000000000001,
            "y":7.6000000000000005
        },
        {
            "x":-5.4,
            "y":7.6000000000000005
        },
        {
            "x":-6.6000000000000005,
            "y":7.6000000000000005
        },
        {
            "x":-7.0,
            "y":7.6000000000000005
        }
    ],
    "name":"mc_escher_bird_pos"
}